%YAML 1.1
%TAG !u! tag:unity3d.com,2011:
--- !u!74 &7400000
AnimationClip:
  m_ObjectHideFlags: 0
  m_CorrespondingSourceObject: {fileID: 0}
  m_PrefabInstance: {fileID: 0}
  m_PrefabAsset: {fileID: 0}
  m_Name: animSpritePowerMoon
  serializedVersion: 6
  m_Legacy: 0
  m_Compressed: 0
  m_UseHighQualityCurve: 1
  m_RotationCurves: []
  m_CompressedRotationCurves: []
  m_EulerCurves: []
  m_PositionCurves: []
  m_ScaleCurves: []
  m_FloatCurves: []
  m_PPtrCurves:
  - curve:
    - time: 0
      value: {fileID: 21300000, guid: 2237209bc1705404b8332722b52d3f48, type: 3}
    - time: 0.016666668
      value: {fileID: 21300008, guid: 2237209bc1705404b8332722b52d3f48, type: 3}
    - time: 0.06666667
      value: {fileID: 21300010, guid: 2237209bc1705404b8332722b52d3f48, type: 3}
    - time: 0.1
      value: {fileID: 21300012, guid: 2237209bc1705404b8332722b52d3f48, type: 3}
    - time: 0.11666667
      value: {fileID: 21300014, guid: 2237209bc1705404b8332722b52d3f48, type: 3}
    - time: 0.16666667
      value: {fileID: 21300016, guid: 2237209bc1705404b8332722b52d3f48, type: 3}
    - time: 0.21666667
      value: {fileID: 21300018, guid: 2237209bc1705404b8332722b52d3f48, type: 3}
    - time: 0.25
      value: {fileID: 21300020, guid: 2237209bc1705404b8332722b52d3f48, type: 3}
    - time: 0.3
      value: {fileID: 21300022, guid: 2237209bc1705404b8332722b52d3f48, type: 3}
    - time: 0.31666666
      value: {fileID: 21300024, guid: 2237209bc1705404b8332722b52d3f48, type: 3}
    - time: 0.4
      value: {fileID: 21300026, guid: 2237209bc1705404b8332722b52d3f48, type: 3}
    - time: 0.41666666
      value: {fileID: 21300028, guid: 2237209bc1705404b8332722b52d3f48, type: 3}
    - time: 0.45
      value: {fileID: 21300030, guid: 2237209bc1705404b8332722b52d3f48, type: 3}
    - time: 0.5
      value: {fileID: 21300032, guid: 2237209bc1705404b8332722b52d3f48, type: 3}
    - time: 0.51666665
      value: {fileID: 21300034, guid: 2237209bc1705404b8332722b52d3f48, type: 3}
    - time: 0.53333336
      value: {fileID: 21300036, guid: 2237209bc1705404b8332722b52d3f48, type: 3}
    - time: 0.56666666
      value: {fileID: 21300038, guid: 2237209bc1705404b8332722b52d3f48, type: 3}
    - time: 0.6333333
      value: {fileID: 21300040, guid: 2237209bc1705404b8332722b52d3f48, type: 3}
    - time: 0.6666667
      value: {fileID: 21300042, guid: 2237209bc1705404b8332722b52d3f48, type: 3}
    - time: 0.71666664
      value: {fileID: 21300044, guid: 2237209bc1705404b8332722b52d3f48, type: 3}
    - time: 0.73333335
      value: {fileID: 21300046, guid: 2237209bc1705404b8332722b52d3f48, type: 3}
    - time: 0.76666665
      value: {fileID: 21300048, guid: 2237209bc1705404b8332722b52d3f48, type: 3}
    - time: 0.81666666
      value: {fileID: 21300050, guid: 2237209bc1705404b8332722b52d3f48, type: 3}
    - time: 0.8333333
      value: {fileID: 21300052, guid: 2237209bc1705404b8332722b52d3f48, type: 3}
    - time: 0.8666667
      value: {fileID: 21300054, guid: 2237209bc1705404b8332722b52d3f48, type: 3}
    - time: 0.8833333
      value: {fileID: 21300056, guid: 2237209bc1705404b8332722b52d3f48, type: 3}
    - time: 0.93333334
      value: {fileID: 21300058, guid: 2237209bc1705404b8332722b52d3f48, type: 3}
    - time: 0.96666664
      value: {fileID: 21300060, guid: 2237209bc1705404b8332722b52d3f48, type: 3}
    - time: 1.05
      value: {fileID: 21300062, guid: 2237209bc1705404b8332722b52d3f48, type: 3}
    - time: 1.0833334
      value: {fileID: 21300064, guid: 2237209bc1705404b8332722b52d3f48, type: 3}
    - time: 1.1333333
      value: {fileID: 21300066, guid: 2237209bc1705404b8332722b52d3f48, type: 3}
    - time: 1.15
      value: {fileID: 21300068, guid: 2237209bc1705404b8332722b52d3f48, type: 3}
    - time: 1.1833333
      value: {fileID: 21300070, guid: 2237209bc1705404b8332722b52d3f48, type: 3}
    - time: 1.2
      value: {fileID: 21300072, guid: 2237209bc1705404b8332722b52d3f48, type: 3}
    - time: 1.25
      value: {fileID: 21300074, guid: 2237209bc1705404b8332722b52d3f48, type: 3}
    - time: 1.2833333
      value: {fileID: 21300076, guid: 2237209bc1705404b8332722b52d3f48, type: 3}
    - time: 1.3
      value: {fileID: 21300078, guid: 2237209bc1705404b8332722b52d3f48, type: 3}
    - time: 1.35
      value: {fileID: 21300080, guid: 2237209bc1705404b8332722b52d3f48, type: 3}
    - time: 1.3833333
      value: {fileID: 21300082, guid: 2237209bc1705404b8332722b52d3f48, type: 3}
    - time: 1.45
      value: {fileID: 21300084, guid: 2237209bc1705404b8332722b52d3f48, type: 3}
    - time: 1.4833333
      value: {fileID: 21300086, guid: 2237209bc1705404b8332722b52d3f48, type: 3}
    - time: 1.5
      value: {fileID: 21300088, guid: 2237209bc1705404b8332722b52d3f48, type: 3}
    - time: 1.5166667
      value: {fileID: 21300090, guid: 2237209bc1705404b8332722b52d3f48, type: 3}
    - time: 1.5666667
      value: {fileID: 21300024, guid: 2237209bc1705404b8332722b52d3f48, type: 3}
    - time: 1.6
      value: {fileID: 21300022, guid: 2237209bc1705404b8332722b52d3f48, type: 3}
    - time: 1.6166667
      value: {fileID: 21300020, guid: 2237209bc1705404b8332722b52d3f48, type: 3}
    - time: 1.6666666
      value: {fileID: 21300018, guid: 2237209bc1705404b8332722b52d3f48, type: 3}
    - time: 1.7166667
      value: {fileID: 21300016, guid: 2237209bc1705404b8332722b52d3f48, type: 3}
    - time: 1.7666667
      value: {fileID: 21300014, guid: 2237209bc1705404b8332722b52d3f48, type: 3}
    - time: 1.8
      value: {fileID: 21300012, guid: 2237209bc1705404b8332722b52d3f48, type: 3}
    - time: 1.85
      value: {fileID: 21300010, guid: 2237209bc1705404b8332722b52d3f48, type: 3}
    - time: 1.9
      value: {fileID: 21300008, guid: 2237209bc1705404b8332722b52d3f48, type: 3}
    - time: 1.9166666
      value: {fileID: 21300006, guid: 2237209bc1705404b8332722b52d3f48, type: 3}
    - time: 1.95
      value: {fileID: 21300004, guid: 2237209bc1705404b8332722b52d3f48, type: 3}
    - time: 2
      value: {fileID: 21300002, guid: 2237209bc1705404b8332722b52d3f48, type: 3}
    - time: 2.0166667
      value: {fileID: 21300000, guid: 2237209bc1705404b8332722b52d3f48, type: 3}
    attribute: m_Sprite
    path: 
    classID: 212
    script: {fileID: 0}
  m_SampleRate: 60
  m_WrapMode: 0
  m_Bounds:
    m_Center: {x: 0, y: 0, z: 0}
    m_Extent: {x: 0, y: 0, z: 0}
  m_ClipBindingConstant:
    genericBindings:
    - serializedVersion: 2
      path: 0
      attribute: 0
      script: {fileID: 0}
      typeID: 212
      customType: 23
      isPPtrCurve: 1
    pptrCurveMapping:
    - {fileID: 21300000, guid: 2237209bc1705404b8332722b52d3f48, type: 3}
    - {fileID: 21300008, guid: 2237209bc1705404b8332722b52d3f48, type: 3}
    - {fileID: 21300010, guid: 2237209bc1705404b8332722b52d3f48, type: 3}
    - {fileID: 21300012, guid: 2237209bc1705404b8332722b52d3f48, type: 3}
    - {fileID: 21300014, guid: 2237209bc1705404b8332722b52d3f48, type: 3}
    - {fileID: 21300016, guid: 2237209bc1705404b8332722b52d3f48, type: 3}
    - {fileID: 21300018, guid: 2237209bc1705404b8332722b52d3f48, type: 3}
    - {fileID: 21300020, guid: 2237209bc1705404b8332722b52d3f48, type: 3}
    - {fileID: 21300022, guid: 2237209bc1705404b8332722b52d3f48, type: 3}
    - {fileID: 21300024, guid: 2237209bc1705404b8332722b52d3f48, type: 3}
    - {fileID: 21300026, guid: 2237209bc1705404b8332722b52d3f48, type: 3}
    - {fileID: 21300028, guid: 2237209bc1705404b8332722b52d3f48, type: 3}
    - {fileID: 21300030, guid: 2237209bc1705404b8332722b52d3f48, type: 3}
    - {fileID: 21300032, guid: 2237209bc1705404b8332722b52d3f48, type: 3}
    - {fileID: 21300034, guid: 2237209bc1705404b8332722b52d3f48, type: 3}
    - {fileID: 21300036, guid: 2237209bc1705404b8332722b52d3f48, type: 3}
    - {fileID: 21300038, guid: 2237209bc1705404b8332722b52d3f48, type: 3}
    - {fileID: 21300040, guid: 2237209bc1705404b8332722b52d3f48, type: 3}
    - {fileID: 21300042, guid: 2237209bc1705404b8332722b52d3f48, type: 3}
    - {fileID: 21300044, guid: 2237209bc1705404b8332722b52d3f48, type: 3}
    - {fileID: 21300046, guid: 2237209bc1705404b8332722b52d3f48, type: 3}
    - {fileID: 21300048, guid: 2237209bc1705404b8332722b52d3f48, type: 3}
    - {fileID: 21300050, guid: 2237209bc1705404b8332722b52d3f48, type: 3}
    - {fileID: 21300052, guid: 2237209bc1705404b8332722b52d3f48, type: 3}
    - {fileID: 21300054, guid: 2237209bc1705404b8332722b52d3f48, type: 3}
    - {fileID: 21300056, guid: 2237209bc1705404b8332722b52d3f48, type: 3}
    - {fileID: 21300058, guid: 2237209bc1705404b8332722b52d3f48, type: 3}
    - {fileID: 21300060, guid: 2237209bc1705404b8332722b52d3f48, type: 3}
    - {fileID: 21300062, guid: 2237209bc1705404b8332722b52d3f48, type: 3}
    - {fileID: 21300064, guid: 2237209bc1705404b8332722b52d3f48, type: 3}
    - {fileID: 21300066, guid: 2237209bc1705404b8332722b52d3f48, type: 3}
    - {fileID: 21300068, guid: 2237209bc1705404b8332722b52d3f48, type: 3}
    - {fileID: 21300070, guid: 2237209bc1705404b8332722b52d3f48, type: 3}
    - {fileID: 21300072, guid: 2237209bc1705404b8332722b52d3f48, type: 3}
    - {fileID: 21300074, guid: 2237209bc1705404b8332722b52d3f48, type: 3}
    - {fileID: 21300076, guid: 2237209bc1705404b8332722b52d3f48, type: 3}
    - {fileID: 21300078, guid: 2237209bc1705404b8332722b52d3f48, type: 3}
    - {fileID: 21300080, guid: 2237209bc1705404b8332722b52d3f48, type: 3}
    - {fileID: 21300082, guid: 2237209bc1705404b8332722b52d3f48, type: 3}
    - {fileID: 21300084, guid: 2237209bc1705404b8332722b52d3f48, type: 3}
    - {fileID: 21300086, guid: 2237209bc1705404b8332722b52d3f48, type: 3}
    - {fileID: 21300088, guid: 2237209bc1705404b8332722b52d3f48, type: 3}
    - {fileID: 21300090, guid: 2237209bc1705404b8332722b52d3f48, type: 3}
    - {fileID: 21300024, guid: 2237209bc1705404b8332722b52d3f48, type: 3}
    - {fileID: 21300022, guid: 2237209bc1705404b8332722b52d3f48, type: 3}
    - {fileID: 21300020, guid: 2237209bc1705404b8332722b52d3f48, type: 3}
    - {fileID: 21300018, guid: 2237209bc1705404b8332722b52d3f48, type: 3}
    - {fileID: 21300016, guid: 2237209bc1705404b8332722b52d3f48, type: 3}
    - {fileID: 21300014, guid: 2237209bc1705404b8332722b52d3f48, type: 3}
    - {fileID: 21300012, guid: 2237209bc1705404b8332722b52d3f48, type: 3}
    - {fileID: 21300010, guid: 2237209bc1705404b8332722b52d3f48, type: 3}
    - {fileID: 21300008, guid: 2237209bc1705404b8332722b52d3f48, type: 3}
    - {fileID: 21300006, guid: 2237209bc1705404b8332722b52d3f48, type: 3}
    - {fileID: 21300004, guid: 2237209bc1705404b8332722b52d3f48, type: 3}
    - {fileID: 21300002, guid: 2237209bc1705404b8332722b52d3f48, type: 3}
    - {fileID: 21300000, guid: 2237209bc1705404b8332722b52d3f48, type: 3}
  m_AnimationClipSettings:
    serializedVersion: 2
    m_AdditiveReferencePoseClip: {fileID: 0}
    m_AdditiveReferencePoseTime: 0
    m_StartTime: 0
    m_StopTime: 2.0333333
    m_OrientationOffsetY: 0
    m_Level: 0
    m_CycleOffset: 0
    m_HasAdditiveReferencePose: 0
    m_LoopTime: 0
    m_LoopBlend: 0
    m_LoopBlendOrientation: 0
    m_LoopBlendPositionY: 0
    m_LoopBlendPositionXZ: 0
    m_KeepOriginalOrientation: 0
    m_KeepOriginalPositionY: 1
    m_KeepOriginalPositionXZ: 0
    m_HeightFromFeet: 0
    m_Mirror: 0
  m_EditorCurves: []
  m_EulerEditorCurves: []
  m_HasGenericRootTransform: 0
  m_HasMotionFloatCurves: 0
  m_Events: []
