%YAML 1.1
%TAG !u! tag:unity3d.com,2011:
--- !u!1045 &1
EditorBuildSettings:
  m_ObjectHideFlags: 0
  serializedVersion: 2
  m_Scenes:
  - enabled: 1
    path: Assets/Scenes/StartMenu.unity
    guid: acf538df42997c446ab08463ed130799
  - enabled: 1
    path: Assets/Scenes/MainGame.unity
    guid: 1de2b12ed9c16dd4f8af83e7705f60cb
  - enabled: 1
    path: Assets/Scenes/Win.unity
    guid: afa0818f5429d854d9af639ec1dae3fa
  - enabled: 1
    path: Assets/Scenes/Lose.unity
    guid: 2e69f9f6ea3566943a0fd0dd815ca7c5
  m_configObjects: {}
